{
  "type": "service_account",
  "project_id": "hc-dev-330309",
  "private_key_id": "009cd8be6529198df761b85db1e155615d114c81",
  "private_key": "-----BEGIN PRIVATE KEY-----\nMIIEvQIBADANBgkqhkiG9w0BAQEFAASCBKcwggSjAgEAAoIBAQC1qVZ2hyG9VXh1\nodmURbOZZv7UDVkoYwtjE6jBkTq69G+Q1x8a6BTl09KvTOmMKuXqmIM/50Rq3f1v\ncGVoRGTDTto4zfSXw13hQudjbK0HDcWzIDn3+bo5x2AffPYxwNqnU41wVj9b2kK2\nrR16ksaTdakrxMyXa7QYOIxbrYZMChwiKSSX15qNQOdgGygQtSA1aXIoE8bp3JV6\nC3anIaaLju4UFWKjwGyOUKygOAoVCZ1jGEif/f9UcUwJsEwxY0bJdKUawOTsfnB/\nkpg8GMuxHqCfgwVLxYbGBI1tN16dnbrnjD5VIrpkJBFEEejdhsq39xuQ9VVzojaH\ndoWjNEN5AgMBAAECggEAAbyrIQyT314565DhQcl5Had1GnXR7aMAzoNb0sxH6Y1K\npBZnEDy6SUiTlDbPskzotOLBuWBXy+qnDBHOsv2+I3qDLl7dxaO3p7oaHQKeFKNB\n3C1AWcndJKBun6VPmHjn9S0y/PJZmb29BbUjDDx9eSkNo2eSQPJlw4OGVcLu7LsM\nLCWyHcy8+AjCG4cL8+PU5gXhuJlQFqQgbEupaOXi5VgvVWXGon0xaX3VIfPb6F4u\nuOWuMERqywLeY/jEyK4E6+XIQqEzWWcX8QZR8eMrh7CAjv7racoUrhpTYYBV9oIz\nTi3IsI7Y0NeiYiekmnNGqwpzXQVwdcMLidFBODyVNwKBgQDja/YWptlHXSRGOdwm\nAfIUjBS4Mv3+/aisehxtSD4hr15O6n54BVW1EhKeVWSDF5y4wNVKWt4NTcNcfiTK\nFPtCTya3ZbBU77HSIMllX4/1vh9gX9h7PC84TmnWaFdd2d0hA+kHqP7zUTn1oBAV\nc7zufEhq2VoojwzlXthe83upawKBgQDMfUsFRtBuXEGwaSb4r/wBL8vyDNL4AGyr\nSSRaWeUIdQiDb8C/f6S9GaEaFNiLiXRig87R7+dl9ca4i/naDXztfQXCWhiYfsNf\nq+twlLQk4Z8d53ZuV3YEKDsvUCjaGxS+9/CYbuADi8Vk8MUkSuCaEX9PrK+NDDzH\nExvYZheLqwKBgFJ3sswyArZrIx1IG/m4WOV0iorlCs/tgb3Rpf9G5Cjo4+TwCZ5S\nKOs5O4Eo7ALRjCY+3tlQrBbc7QvcPlD9XMOF2j9E47VZGf1doEpfZd+x6sTS3LiL\ncYAUhzKVsaC5wQMY3ObHNHRdLwxP16U/y/IbJVOBr7znasC+LO35kw0zAoGBALIy\nBOwGN5/UOVIXb+SKxxnpotm9HyMKi6f/xvQNHi7ufYq8GcVG4DIBYYgu3j1KfOdU\nYShE3OrW8GLlZ8cCtfjmV9xzUregz3RRhovGqezxyAzxJR0mjis1O84RFmhp7Pw1\nZ64OAJxWcp9xyPnFXlAkK0MtApXxMg1ws3UyEhadAoGACY+0O9eMzLXKCrNAgyWK\n2TMNJhtZxzE5uxLBK+UPO8v69JVqe6dfiOiPFHL6gKW3r5Fu/S88v0RvT1UUUcYD\nlGm+JWAYPnrylsp6wQ6ZIRI1RixeupjOvYQlkCR5HT/ifL++aNqAoFZ2UC1Je65z\nCay+R3nR9DqUttMNmAS3EpU=\n-----END PRIVATE KEY-----\n",
  "client_email": "firebase-adminsdk@hc-dev-330309.iam.gserviceaccount.com",
  "client_id": "118258943385720648015",
  "auth_uri": "https://accounts.google.com/o/oauth2/auth",
  "token_uri": "https://oauth2.googleapis.com/token",
  "auth_provider_x509_cert_url": "https://www.googleapis.com/oauth2/v1/certs",
  "client_x509_cert_url": "https://www.googleapis.com/robot/v1/metadata/x509/firebase-adminsdk%40hc-dev-330309.iam.gserviceaccount.com"
}
